[
  {
    "id": 1,
    "assets": [
      {
        "id": "a",
        "src": "01.png",
        "x": "10px",
        "y": "57vh",
        "layer": "1"
      },
      {
        "id": "b",
        "src": "sol.png",
        "x": "0px",
        "y": "0",
        "layer": "0"
      }
    ]
  },
  {
    "id": 2,
    "assets": [
      {
        "id": "a",
        "src": "02.png",
        "x": "10px",
        "y": "57vh",
        "layer": "1"
      },
      {
        "id": "b",
        "src": "sol.png",
        "x": "0px",
        "y": "0",
        "layer": "0"
      }
    ]
  },
  {
    "id": 3,
    "assets": [
      {
        "id": "a",
        "src": "03.png",
        "x": "10px",
        "y": "57vh",
        "layer": "1"
      },
      {
        "id": "b",
        "src": "sol.png",
        "x": "0px",
        "y": "0",
        "layer": "0"
      }
    ]
  },
  {
    "id": 4,
    "assets": [
      {
        "id": "a",
        "src": "04.png",
        "x": "10px",
        "y": "57vh",
        "layer": "1"
      },
      {
        "id": "b",
        "src": "sol.png",
        "x": "0px",
        "y": "0",
        "layer": "0"
      }
    ]
  },
  {
    "id": 5,
    "assets": [
      {
        "id": "a",
        "src": "05.png",
        "x": "10px",
        "y": "57vh",
        "layer": "1"
      },
      {
        "id": "b",
        "src": "sol.png",
        "x": "0px",
        "y": "0",
        "layer": "0"
      }
    ]
  },
  {
    "id": 6,
    "assets": [
      {
        "id": "a",
        "src": "06.png",
        "x": "10px",
        "y": "57vh",
        "layer": "1"
      },
      {
        "id": "b",
        "src": "sol.png",
        "x": "0px",
        "y": "0",
        "layer": "0"
      }
    ]
  },
  {
    "id": 7,
    "assets": [
      {
        "id": "a",
        "src": "07.png",
        "x": "10px",
        "y": "57vh",
        "layer": "1"
      },
      {
        "id": "b",
        "src": "sol.png",
        "x": "0px",
        "y": "0",
        "layer": "0"
      }
    ]
  },
  {
    "id": 8,
    "assets": [
      {
        "id": "a",
        "src": "08.png",
        "x": "10px",
        "y": "57vh",
        "layer": "1"
      },
      {
        "id": "b",
        "src": "08b.png",
        "x": "10px",
        "y": "57vh",
        "layer": "1"
      },
      {
        "id": "c",
        "src": "sol.png",
        "x": "200px",
        "y": "200px",
        "layer": "0"
      }
    ]
  }
]
